"Resource/ChangeGameDialog.res"
{
	"ChangeGameDialog"
	{
		"ControlName"		"Frame"
		"fieldName"		"ChangeGameDialog"
		"xpos"		"520"
		"ypos"		"280"
		"wide"		"400"
		"tall"		"340"
		"autoResize"		"0"
		"pinCorner"		"0"
		"visible"		"1"
		"enabled"		"1"
		"tabPosition"		"0"
		"settitlebarvisible"		"1"
		"title"		"#GameUI_ChangeGame"
	}
	"frame_topGrip"
	{
		"ControlName"		"Panel"
		"fieldName"		"frame_topGrip"
		"xpos"		"8"
		"ypos"		"0"
		"wide"		"384"
		"tall"		"5"
		"autoResize"		"0"
		"pinCorner"		"0"
		"visible"		"1"
		"enabled"		"1"
		"tabPosition"		"0"
	}
	"frame_bottomGrip"
	{
		"ControlName"		"Panel"
		"fieldName"		"frame_bottomGrip"
		"xpos"		"8"
		"ypos"		"335"
		"wide"		"374"
		"tall"		"5"
		"autoResize"		"0"
		"pinCorner"		"0"
		"visible"		"1"
		"enabled"		"1"
		"tabPosition"		"0"
	}
	"frame_leftGrip"
	{
		"ControlName"		"Panel"
		"fieldName"		"frame_leftGrip"
		"xpos"		"0"
		"ypos"		"8"
		"wide"		"5"
		"tall"		"324"
		"autoResize"		"0"
		"pinCorner"		"0"
		"visible"		"1"
		"enabled"		"1"
		"tabPosition"		"0"
	}
	"frame_rightGrip"
	{
		"ControlName"		"Panel"
		"fieldName"		"frame_rightGrip"
		"xpos"		"395"
		"ypos"		"8"
		"wide"		"5"
		"tall"		"314"
		"autoResize"		"0"
		"pinCorner"		"0"
		"visible"		"1"
		"enabled"		"1"
		"tabPosition"		"0"
	}
	"frame_tlGrip"
	{
		"ControlName"		"Panel"
		"fieldName"		"frame_tlGrip"
		"xpos"		"0"
		"ypos"		"0"
		"wide"		"8"
		"tall"		"8"
		"autoResize"		"0"
		"pinCorner"		"0"
		"visible"		"1"
		"enabled"		"1"
		"tabPosition"		"0"
	}
	"frame_trGrip"
	{
		"ControlName"		"Panel"
		"fieldName"		"frame_trGrip"
		"xpos"		"392"
		"ypos"		"0"
		"wide"		"8"
		"tall"		"8"
		"autoResize"		"0"
		"pinCorner"		"0"
		"visible"		"1"
		"enabled"		"1"
		"tabPosition"		"0"
	}
	"frame_blGrip"
	{
		"ControlName"		"Panel"
		"fieldName"		"frame_blGrip"
		"xpos"		"0"
		"ypos"		"332"
		"wide"		"8"
		"tall"		"8"
		"autoResize"		"0"
		"pinCorner"		"0"
		"visible"		"1"
		"enabled"		"1"
		"tabPosition"		"0"
	}
	"frame_brGrip"
	{
		"ControlName"		"Panel"
		"fieldName"		"frame_brGrip"
		"xpos"		"382"
		"ypos"		"322"
		"wide"		"18"
		"tall"		"18"
		"autoResize"		"0"
		"pinCorner"		"0"
		"visible"		"1"
		"enabled"		"1"
		"tabPosition"		"0"
	}
	"frame_caption"
	{
		"ControlName"		"Panel"
		"fieldName"		"frame_caption"
		"xpos"		"4"
		"ypos"		"8"
		"wide"		"390"
		"tall"		"23"
		"autoResize"		"0"
		"pinCorner"		"0"
		"visible"		"1"
		"enabled"		"1"
		"tabPosition"		"0"
	}
	"frame_close"
	{
		"ControlName"		"Button"
		"fieldName"		"frame_close"
		"xpos"		"375"
		"ypos"		"8"
		"wide"		"18"
		"tall"		"18"
		"autoResize"		"0"
		"pinCorner"		"0"
		"visible"		"1"
		"enabled"		"1"
		"tabPosition"		"0"
		"labelText"		"r"
		"textAlignment"		"north-west"
		"dulltext"		"0"
		"brighttext"		"0"
		"wrap"		"0"
		"Default"		"0"
	}
	"frame_menu"
	{
		"ControlName"		"FrameSystemButton"
		"fieldName"		"frame_menu"
		"xpos"		"7"
		"ypos"		"8"
		"wide"		"18"
		"tall"		"18"
		"autoResize"		"0"
		"pinCorner"		"0"
		"visible"		"1"
		"enabled"		"1"
		"tabPosition"		"0"
		"textAlignment"		"west"
		"dulltext"		"0"
		"brighttext"		"0"
		"wrap"		"0"
		"Default"		"0"
	}
	"ModList"
	{
		"ControlName"		"ListPanel"
		"fieldName"		"ModList"
		"xpos"		"20"
		"ypos"		"40"
		"wide"		"360"
		"tall"		"206"
		"autoResize"		"3"
		"pinCorner"		"0"
		"visible"		"1"
		"enabled"		"1"
		"tabPosition"		"1"
	}
	"Button1"
	{
		"ControlName"		"Button"
		"fieldName"		"Button1"
		"xpos"		"190"
		"ypos"		"295"
		"wide"		"104"
		"tall"		"24"
		"autoResize"		"0"
		"pinCorner"		"3"
		"visible"		"1"
		"enabled"		"1"
		"tabPosition"		"2"
		"labelText"		"#GameUI_ChangeGame"
		"textAlignment"		"west"
		"dulltext"		"0"
		"brighttext"		"0"
		"Command"		"OK"
		"Default"		"1"
	}
	"Button2"
	{
		"ControlName"		"Button"
		"fieldName"		"Button2"
		"xpos"		"310"
		"ypos"		"294"
		"wide"		"72"
		"tall"		"24"
		"autoResize"		"0"
		"pinCorner"		"3"
		"visible"		"1"
		"enabled"		"1"
		"tabPosition"		"3"
		"labelText"		"#GameUI_Cancel"
		"textAlignment"		"west"
		"dulltext"		"0"
		"brighttext"		"0"
		"Command"		"Close"
		"Default"		"0"
	}
	"Label1"
	{
		"ControlName"		"Label"
		"fieldName"		"Label1"
		"xpos"		"20"
		"ypos"		"250"
		"wide"		"360"
		"tall"		"40"
		"autoResize"		"1"
		"pinCorner"		"2"
		"visible"		"1"
		"enabled"		"1"
		"tabPosition"		"0"
		"labelText"		"#GameUI_ForceGameRestart"
		"textAlignment"		"west"
		"dulltext"		"1"
		"brighttext"		"0"
	}
	"BuildModeDialog"
	{
		"ControlName"		"BuildModeDialog"
		"fieldName"		"BuildModeDialog"
		"xpos"		"980"
		"ypos"		"214"
		"wide"		"300"
		"tall"		"420"
		"autoResize"		"0"
		"pinCorner"		"0"
		"visible"		"1"
		"enabled"		"1"
		"tabPosition"		"0"
		"settitlebarvisible"		"1"
		"title"		"#Frame_Untitled"
	}
}
